ISO-10303-21;
HEADER;
/* Generated by software containing ST-Developer
 * from STEP Tools, Inc. (www.steptools.com) 
 */

FILE_DESCRIPTION(
/* description */ ('Open CASCADE Model'),
/* implementation_level */ '2;1');

FILE_NAME(
/* name */ 'chassis-v2.step',
/* time_stamp */ '2024-09-02T21:22:53+03:00',
/* author */ (''),
/* organization */ (''),
/* preprocessor_version */ 'ST-DEVELOPER v20',
/* originating_system */ 'Autodesk Translation Framework v13.14.0.145',

/* authorisation */ '');

FILE_SCHEMA (('AUTOMOTIVE_DESIGN { 1 0 10303 214 3 1 1 }'));
ENDSEC;

DATA;
#10=MECHANICAL_DESIGN_GEOMETRIC_PRESENTATION_REPRESENTATION('',(#53,#54,
#55),#242);
#11=ITEM_DEFINED_TRANSFORMATION($,$,#134,#146);
#12=ITEM_DEFINED_TRANSFORMATION($,$,#134,#147);
#13=ITEM_DEFINED_TRANSFORMATION($,$,#140,#148);
#14=ITEM_DEFINED_TRANSFORMATION($,$,#134,#149);
#15=ITEM_DEFINED_TRANSFORMATION($,$,#134,#150);
#16=ITEM_DEFINED_TRANSFORMATION($,$,#140,#151);
#17=ITEM_DEFINED_TRANSFORMATION($,$,#132,#152);
#18=ITEM_DEFINED_TRANSFORMATION($,$,#133,#153);
#19=(
REPRESENTATION_RELATIONSHIP($,$,#268,#266)
REPRESENTATION_RELATIONSHIP_WITH_TRANSFORMATION(#11)
SHAPE_REPRESENTATION_RELATIONSHIP()
);
#20=(
REPRESENTATION_RELATIONSHIP($,$,#268,#266)
REPRESENTATION_RELATIONSHIP_WITH_TRANSFORMATION(#12)
SHAPE_REPRESENTATION_RELATIONSHIP()
);
#21=(
REPRESENTATION_RELATIONSHIP($,$,#269,#266)
REPRESENTATION_RELATIONSHIP_WITH_TRANSFORMATION(#13)
SHAPE_REPRESENTATION_RELATIONSHIP()
);
#22=(
REPRESENTATION_RELATIONSHIP($,$,#268,#267)
REPRESENTATION_RELATIONSHIP_WITH_TRANSFORMATION(#14)
SHAPE_REPRESENTATION_RELATIONSHIP()
);
#23=(
REPRESENTATION_RELATIONSHIP($,$,#268,#267)
REPRESENTATION_RELATIONSHIP_WITH_TRANSFORMATION(#15)
SHAPE_REPRESENTATION_RELATIONSHIP()
);
#24=(
REPRESENTATION_RELATIONSHIP($,$,#269,#267)
REPRESENTATION_RELATIONSHIP_WITH_TRANSFORMATION(#16)
SHAPE_REPRESENTATION_RELATIONSHIP()
);
#25=(
REPRESENTATION_RELATIONSHIP($,$,#266,#265)
REPRESENTATION_RELATIONSHIP_WITH_TRANSFORMATION(#17)
SHAPE_REPRESENTATION_RELATIONSHIP()
);
#26=(
REPRESENTATION_RELATIONSHIP($,$,#267,#265)
REPRESENTATION_RELATIONSHIP_WITH_TRANSFORMATION(#18)
SHAPE_REPRESENTATION_RELATIONSHIP()
);
#27=CONTEXT_DEPENDENT_SHAPE_REPRESENTATION(#19,#257);
#28=CONTEXT_DEPENDENT_SHAPE_REPRESENTATION(#20,#258);
#29=CONTEXT_DEPENDENT_SHAPE_REPRESENTATION(#21,#259);
#30=CONTEXT_DEPENDENT_SHAPE_REPRESENTATION(#22,#260);
#31=CONTEXT_DEPENDENT_SHAPE_REPRESENTATION(#23,#261);
#32=CONTEXT_DEPENDENT_SHAPE_REPRESENTATION(#24,#262);
#33=CONTEXT_DEPENDENT_SHAPE_REPRESENTATION(#25,#263);
#34=CONTEXT_DEPENDENT_SHAPE_REPRESENTATION(#26,#264);
#35=NEXT_ASSEMBLY_USAGE_OCCURRENCE('wheel:1','wheel:1','wheel:1',#272,#274,
'wheel:1');
#36=NEXT_ASSEMBLY_USAGE_OCCURRENCE('wheel:2','wheel:2','wheel:2',#272,#274,
'wheel:2');
#37=NEXT_ASSEMBLY_USAGE_OCCURRENCE('axle:1','axle:1','axle:1',#272,#275,
'axle:1');
#38=NEXT_ASSEMBLY_USAGE_OCCURRENCE('wheel:1','wheel:1','wheel:1',#273,#274,
'wheel:1');
#39=NEXT_ASSEMBLY_USAGE_OCCURRENCE('wheel:2','wheel:2','wheel:2',#273,#274,
'wheel:2');
#40=NEXT_ASSEMBLY_USAGE_OCCURRENCE('axle:1','axle:1','axle:1',#273,#275,
'axle:1');
#41=NEXT_ASSEMBLY_USAGE_OCCURRENCE('wheel-axle:1','wheel-axle:1',
'wheel-axle:1',#271,#272,'wheel-axle:1');
#42=NEXT_ASSEMBLY_USAGE_OCCURRENCE('wheel-axle:2','wheel-axle:2',
'wheel-axle:2',#271,#273,'wheel-axle:2');
#43=SHAPE_REPRESENTATION_RELATIONSHIP('SRR','None',#268,#45);
#44=SHAPE_REPRESENTATION_RELATIONSHIP('SRR','None',#269,#46);
#45=ADVANCED_BREP_SHAPE_REPRESENTATION('',(#47),#240);
#46=ADVANCED_BREP_SHAPE_REPRESENTATION('',(#48),#241);
#47=MANIFOLD_SOLID_BREP('Body1',#106);
#48=MANIFOLD_SOLID_BREP('Body1',#107);
#49=PLANE('',#138);
#50=PLANE('',#139);
#51=PLANE('',#144);
#52=PLANE('',#145);
#53=STYLED_ITEM('',(#296),#101);
#54=STYLED_ITEM('',(#295),#47);
#55=STYLED_ITEM('',(#297),#48);
#56=FACE_OUTER_BOUND('',#62,.T.);
#57=FACE_OUTER_BOUND('',#63,.T.);
#58=FACE_OUTER_BOUND('',#64,.T.);
#59=FACE_OUTER_BOUND('',#65,.T.);
#60=FACE_OUTER_BOUND('',#66,.T.);
#61=FACE_OUTER_BOUND('',#67,.T.);
#62=EDGE_LOOP('',(#86,#87,#88,#89));
#63=EDGE_LOOP('',(#90));
#64=EDGE_LOOP('',(#91));
#65=EDGE_LOOP('',(#92,#93,#94,#95));
#66=EDGE_LOOP('',(#96));
#67=EDGE_LOOP('',(#97));
#68=LINE('',#210,#70);
#69=LINE('',#219,#71);
#70=VECTOR('',#166,250.);
#71=VECTOR('',#179,25.);
#72=CIRCLE('',#136,250.);
#73=CIRCLE('',#137,250.);
#74=CIRCLE('',#142,25.);
#75=CIRCLE('',#143,25.);
#76=VERTEX_POINT('',#207);
#77=VERTEX_POINT('',#209);
#78=VERTEX_POINT('',#216);
#79=VERTEX_POINT('',#218);
#80=EDGE_CURVE('',#76,#76,#72,.T.);
#81=EDGE_CURVE('',#76,#77,#68,.T.);
#82=EDGE_CURVE('',#77,#77,#73,.T.);
#83=EDGE_CURVE('',#78,#78,#74,.T.);
#84=EDGE_CURVE('',#78,#79,#69,.T.);
#85=EDGE_CURVE('',#79,#79,#75,.T.);
#86=ORIENTED_EDGE('',*,*,#80,.F.);
#87=ORIENTED_EDGE('',*,*,#81,.T.);
#88=ORIENTED_EDGE('',*,*,#82,.T.);
#89=ORIENTED_EDGE('',*,*,#81,.F.);
#90=ORIENTED_EDGE('',*,*,#80,.T.);
#91=ORIENTED_EDGE('',*,*,#82,.F.);
#92=ORIENTED_EDGE('',*,*,#83,.F.);
#93=ORIENTED_EDGE('',*,*,#84,.T.);
#94=ORIENTED_EDGE('',*,*,#85,.T.);
#95=ORIENTED_EDGE('',*,*,#84,.F.);
#96=ORIENTED_EDGE('',*,*,#83,.T.);
#97=ORIENTED_EDGE('',*,*,#85,.F.);
#98=CYLINDRICAL_SURFACE('',#135,250.);
#99=CYLINDRICAL_SURFACE('',#141,25.);
#100=ADVANCED_FACE('',(#56),#98,.T.);
#101=ADVANCED_FACE('',(#57),#49,.T.);
#102=ADVANCED_FACE('',(#58),#50,.F.);
#103=ADVANCED_FACE('',(#59),#99,.T.);
#104=ADVANCED_FACE('',(#60),#51,.T.);
#105=ADVANCED_FACE('',(#61),#52,.F.);
#106=CLOSED_SHELL('',(#100,#101,#102));
#107=CLOSED_SHELL('',(#103,#104,#105));
#108=DERIVED_UNIT_ELEMENT(#112,1.);
#109=DERIVED_UNIT_ELEMENT(#244,-3.);
#110=DERIVED_UNIT_ELEMENT(#112,1.);
#111=DERIVED_UNIT_ELEMENT(#244,-3.);
#112=(
MASS_UNIT()
NAMED_UNIT(*)
SI_UNIT(.KILO.,.GRAM.)
);
#113=DERIVED_UNIT((#108,#109));
#114=DERIVED_UNIT((#110,#111));
#115=MEASURE_REPRESENTATION_ITEM('density measure',
POSITIVE_RATIO_MEASURE(7850.),#113);
#116=MEASURE_REPRESENTATION_ITEM('density measure',
POSITIVE_RATIO_MEASURE(7850.),#114);
#117=PROPERTY_DEFINITION_REPRESENTATION(#127,#121);
#118=PROPERTY_DEFINITION_REPRESENTATION(#128,#122);
#119=PROPERTY_DEFINITION_REPRESENTATION(#129,#123);
#120=PROPERTY_DEFINITION_REPRESENTATION(#130,#124);
#121=REPRESENTATION('material name',(#125),#240);
#122=REPRESENTATION('density',(#115),#240);
#123=REPRESENTATION('material name',(#126),#241);
#124=REPRESENTATION('density',(#116),#241);
#125=DESCRIPTIVE_REPRESENTATION_ITEM('Steel','Steel');
#126=DESCRIPTIVE_REPRESENTATION_ITEM('Steel','Steel');
#127=PROPERTY_DEFINITION('material property','material name',#274);
#128=PROPERTY_DEFINITION('material property','density of part',#274);
#129=PROPERTY_DEFINITION('material property','material name',#275);
#130=PROPERTY_DEFINITION('material property','density of part',#275);
#131=AXIS2_PLACEMENT_3D('',#202,#154,#155);
#132=AXIS2_PLACEMENT_3D('',#203,#156,#157);
#133=AXIS2_PLACEMENT_3D('',#204,#158,#159);
#134=AXIS2_PLACEMENT_3D('',#205,#160,#161);
#135=AXIS2_PLACEMENT_3D('',#206,#162,#163);
#136=AXIS2_PLACEMENT_3D('',#208,#164,#165);
#137=AXIS2_PLACEMENT_3D('',#211,#167,#168);
#138=AXIS2_PLACEMENT_3D('',#212,#169,#170);
#139=AXIS2_PLACEMENT_3D('',#213,#171,#172);
#140=AXIS2_PLACEMENT_3D('',#214,#173,#174);
#141=AXIS2_PLACEMENT_3D('',#215,#175,#176);
#142=AXIS2_PLACEMENT_3D('',#217,#177,#178);
#143=AXIS2_PLACEMENT_3D('',#220,#180,#181);
#144=AXIS2_PLACEMENT_3D('',#221,#182,#183);
#145=AXIS2_PLACEMENT_3D('',#222,#184,#185);
#146=AXIS2_PLACEMENT_3D('',#223,#186,#187);
#147=AXIS2_PLACEMENT_3D('',#224,#188,#189);
#148=AXIS2_PLACEMENT_3D('',#225,#190,#191);
#149=AXIS2_PLACEMENT_3D('',#226,#192,#193);
#150=AXIS2_PLACEMENT_3D('',#227,#194,#195);
#151=AXIS2_PLACEMENT_3D('',#228,#196,#197);
#152=AXIS2_PLACEMENT_3D('',#229,#198,#199);
#153=AXIS2_PLACEMENT_3D('',#230,#200,#201);
#154=DIRECTION('axis',(0.,0.,1.));
#155=DIRECTION('refdir',(1.,0.,0.));
#156=DIRECTION('axis',(0.,0.,1.));
#157=DIRECTION('refdir',(1.,0.,0.));
#158=DIRECTION('axis',(0.,0.,1.));
#159=DIRECTION('refdir',(1.,0.,0.));
#160=DIRECTION('axis',(0.,0.,1.));
#161=DIRECTION('refdir',(1.,0.,0.));
#162=DIRECTION('center_axis',(1.,0.,0.));
#163=DIRECTION('ref_axis',(0.,0.,1.));
#164=DIRECTION('center_axis',(1.,0.,0.));
#165=DIRECTION('ref_axis',(0.,0.,1.));
#166=DIRECTION('',(-1.,0.,0.));
#167=DIRECTION('center_axis',(1.,0.,0.));
#168=DIRECTION('ref_axis',(0.,0.,1.));
#169=DIRECTION('center_axis',(1.,0.,0.));
#170=DIRECTION('ref_axis',(0.,0.,1.));
#171=DIRECTION('center_axis',(1.,0.,0.));
#172=DIRECTION('ref_axis',(0.,0.,1.));
#173=DIRECTION('axis',(0.,0.,1.));
#174=DIRECTION('refdir',(1.,0.,0.));
#175=DIRECTION('center_axis',(1.,0.,0.));
#176=DIRECTION('ref_axis',(0.,0.,1.));
#177=DIRECTION('center_axis',(1.,0.,0.));
#178=DIRECTION('ref_axis',(0.,0.,1.));
#179=DIRECTION('',(-1.,0.,0.));
#180=DIRECTION('center_axis',(1.,0.,0.));
#181=DIRECTION('ref_axis',(0.,0.,1.));
#182=DIRECTION('center_axis',(1.,0.,0.));
#183=DIRECTION('ref_axis',(0.,0.,1.));
#184=DIRECTION('center_axis',(1.,0.,0.));
#185=DIRECTION('ref_axis',(0.,0.,1.));
#186=DIRECTION('',(1.224646799147E-16,0.,-1.));
#187=DIRECTION('',(-1.,0.,-1.224646799147E-16));
#188=DIRECTION('',(0.,0.,1.));
#189=DIRECTION('',(1.,0.,0.));
#190=DIRECTION('',(0.,0.,1.));
#191=DIRECTION('',(1.,0.,0.));
#192=DIRECTION('',(1.66533453693774E-16,0.,-1.));
#193=DIRECTION('',(-1.,0.,-1.66533453693774E-16));
#194=DIRECTION('',(-5.55111512312578E-17,0.,1.));
#195=DIRECTION('',(1.,0.,5.55111512312578E-17));
#196=DIRECTION('',(-5.55111512312578E-17,0.,1.));
#197=DIRECTION('',(1.,0.,5.55111512312578E-17));
#198=DIRECTION('',(0.,0.,1.));
#199=DIRECTION('',(1.,0.,0.));
#200=DIRECTION('',(0.342020143325669,0.,0.939692620785909));
#201=DIRECTION('',(0.939692620785909,0.,-0.342020143325669));
#202=CARTESIAN_POINT('',(0.,0.,0.));
#203=CARTESIAN_POINT('',(0.,0.,0.));
#204=CARTESIAN_POINT('',(0.,0.,0.));
#205=CARTESIAN_POINT('',(0.,0.,0.));
#206=CARTESIAN_POINT('Origin',(-50.,0.,0.));
#207=CARTESIAN_POINT('',(50.,3.06161699786838E-14,-250.));
#208=CARTESIAN_POINT('Origin',(50.,0.,0.));
#209=CARTESIAN_POINT('',(-50.,3.06161699786838E-14,-250.));
#210=CARTESIAN_POINT('',(-50.,3.06161699786838E-14,-250.));
#211=CARTESIAN_POINT('Origin',(-50.,0.,0.));
#212=CARTESIAN_POINT('Origin',(50.,0.,0.));
#213=CARTESIAN_POINT('Origin',(-50.,0.,0.));
#214=CARTESIAN_POINT('',(0.,0.,0.));
#215=CARTESIAN_POINT('Origin',(-500.,0.,0.));
#216=CARTESIAN_POINT('',(500.,3.06161699786838E-15,-25.));
#217=CARTESIAN_POINT('Origin',(500.,0.,0.));
#218=CARTESIAN_POINT('',(-500.,3.06161699786838E-15,-25.));
#219=CARTESIAN_POINT('',(-500.,3.06161699786838E-15,-25.));
#220=CARTESIAN_POINT('Origin',(-500.,0.,0.));
#221=CARTESIAN_POINT('Origin',(500.,0.,0.));
#222=CARTESIAN_POINT('Origin',(-500.,0.,0.));
#223=CARTESIAN_POINT('',(-500.,0.,0.));
#224=CARTESIAN_POINT('',(500.,0.,0.));
#225=CARTESIAN_POINT('',(0.,0.,0.));
#226=CARTESIAN_POINT('',(-500.,0.,0.));
#227=CARTESIAN_POINT('',(500.,0.,0.));
#228=CARTESIAN_POINT('',(0.,0.,0.));
#229=CARTESIAN_POINT('',(0.,500.,0.));
#230=CARTESIAN_POINT('',(0.,-500.,0.));
#231=UNCERTAINTY_MEASURE_WITH_UNIT(LENGTH_MEASURE(0.01),#243,
'DISTANCE_ACCURACY_VALUE',
'Maximum model space distance between geometric entities at asserted c
onnectivities');
#232=UNCERTAINTY_MEASURE_WITH_UNIT(LENGTH_MEASURE(0.01),#243,
'DISTANCE_ACCURACY_VALUE',
'Maximum model space distance between geometric entities at asserted c
onnectivities');
#233=UNCERTAINTY_MEASURE_WITH_UNIT(LENGTH_MEASURE(0.01),#243,
'DISTANCE_ACCURACY_VALUE',
'Maximum model space distance between geometric entities at asserted c
onnectivities');
#234=UNCERTAINTY_MEASURE_WITH_UNIT(LENGTH_MEASURE(0.01),#243,
'DISTANCE_ACCURACY_VALUE',
'Maximum model space distance between geometric entities at asserted c
onnectivities');
#235=UNCERTAINTY_MEASURE_WITH_UNIT(LENGTH_MEASURE(0.01),#243,
'DISTANCE_ACCURACY_VALUE',
'Maximum model space distance between geometric entities at asserted c
onnectivities');
#236=UNCERTAINTY_MEASURE_WITH_UNIT(LENGTH_MEASURE(0.01),#243,
'DISTANCE_ACCURACY_VALUE',
'Maximum model space distance between geometric entities at asserted c
onnectivities');
#237=(
GEOMETRIC_REPRESENTATION_CONTEXT(3)
GLOBAL_UNCERTAINTY_ASSIGNED_CONTEXT((#231))
GLOBAL_UNIT_ASSIGNED_CONTEXT((#243,#245,#246))
REPRESENTATION_CONTEXT('','3D')
);
#238=(
GEOMETRIC_REPRESENTATION_CONTEXT(3)
GLOBAL_UNCERTAINTY_ASSIGNED_CONTEXT((#232))
GLOBAL_UNIT_ASSIGNED_CONTEXT((#243,#245,#246))
REPRESENTATION_CONTEXT('','3D')
);
#239=(
GEOMETRIC_REPRESENTATION_CONTEXT(3)
GLOBAL_UNCERTAINTY_ASSIGNED_CONTEXT((#233))
GLOBAL_UNIT_ASSIGNED_CONTEXT((#243,#245,#246))
REPRESENTATION_CONTEXT('','3D')
);
#240=(
GEOMETRIC_REPRESENTATION_CONTEXT(3)
GLOBAL_UNCERTAINTY_ASSIGNED_CONTEXT((#234))
GLOBAL_UNIT_ASSIGNED_CONTEXT((#243,#245,#246))
REPRESENTATION_CONTEXT('','3D')
);
#241=(
GEOMETRIC_REPRESENTATION_CONTEXT(3)
GLOBAL_UNCERTAINTY_ASSIGNED_CONTEXT((#235))
GLOBAL_UNIT_ASSIGNED_CONTEXT((#243,#245,#246))
REPRESENTATION_CONTEXT('','3D')
);
#242=(
GEOMETRIC_REPRESENTATION_CONTEXT(3)
GLOBAL_UNCERTAINTY_ASSIGNED_CONTEXT((#236))
GLOBAL_UNIT_ASSIGNED_CONTEXT((#243,#245,#246))
REPRESENTATION_CONTEXT('','3D')
);
#243=(
LENGTH_UNIT()
NAMED_UNIT(*)
SI_UNIT(.MILLI.,.METRE.)
);
#244=(
LENGTH_UNIT()
NAMED_UNIT(*)
SI_UNIT($,.METRE.)
);
#245=(
NAMED_UNIT(*)
PLANE_ANGLE_UNIT()
SI_UNIT($,.RADIAN.)
);
#246=(
NAMED_UNIT(*)
SI_UNIT($,.STERADIAN.)
SOLID_ANGLE_UNIT()
);
#247=SHAPE_DEFINITION_REPRESENTATION(#252,#265);
#248=SHAPE_DEFINITION_REPRESENTATION(#253,#266);
#249=SHAPE_DEFINITION_REPRESENTATION(#254,#267);
#250=SHAPE_DEFINITION_REPRESENTATION(#255,#268);
#251=SHAPE_DEFINITION_REPRESENTATION(#256,#269);
#252=PRODUCT_DEFINITION_SHAPE('',$,#271);
#253=PRODUCT_DEFINITION_SHAPE('',$,#272);
#254=PRODUCT_DEFINITION_SHAPE('',$,#273);
#255=PRODUCT_DEFINITION_SHAPE('',$,#274);
#256=PRODUCT_DEFINITION_SHAPE('',$,#275);
#257=PRODUCT_DEFINITION_SHAPE($,$,#35);
#258=PRODUCT_DEFINITION_SHAPE($,$,#36);
#259=PRODUCT_DEFINITION_SHAPE($,$,#37);
#260=PRODUCT_DEFINITION_SHAPE($,$,#38);
#261=PRODUCT_DEFINITION_SHAPE($,$,#39);
#262=PRODUCT_DEFINITION_SHAPE($,$,#40);
#263=PRODUCT_DEFINITION_SHAPE($,$,#41);
#264=PRODUCT_DEFINITION_SHAPE($,$,#42);
#265=SHAPE_REPRESENTATION('',(#131,#152,#153),#237);
#266=SHAPE_REPRESENTATION('',(#132,#146,#147,#148),#238);
#267=SHAPE_REPRESENTATION('',(#133,#149,#150,#151),#239);
#268=SHAPE_REPRESENTATION('',(#134),#240);
#269=SHAPE_REPRESENTATION('',(#140),#241);
#270=PRODUCT_DEFINITION_CONTEXT('part definition',#287,'design');
#271=PRODUCT_DEFINITION('chassis','(Unsaved)',#276,#270);
#272=PRODUCT_DEFINITION('wheel-axle','wheel-axle',#277,#270);
#273=PRODUCT_DEFINITION('wheel-axle_1','wheel-axle',#278,#270);
#274=PRODUCT_DEFINITION('wheel','wheel',#279,#270);
#275=PRODUCT_DEFINITION('axle','axle',#280,#270);
#276=PRODUCT_DEFINITION_FORMATION('',$,#289);
#277=PRODUCT_DEFINITION_FORMATION('',$,#290);
#278=PRODUCT_DEFINITION_FORMATION('',$,#291);
#279=PRODUCT_DEFINITION_FORMATION('',$,#292);
#280=PRODUCT_DEFINITION_FORMATION('',$,#293);
#281=PRODUCT_RELATED_PRODUCT_CATEGORY('(Unsaved)','(Unsaved)',(#289));
#282=PRODUCT_RELATED_PRODUCT_CATEGORY('wheel-axle','wheel-axle',(#290));
#283=PRODUCT_RELATED_PRODUCT_CATEGORY('wheel-axle','wheel-axle',(#291));
#284=PRODUCT_RELATED_PRODUCT_CATEGORY('wheel','wheel',(#292));
#285=PRODUCT_RELATED_PRODUCT_CATEGORY('axle','axle',(#293));
#286=APPLICATION_PROTOCOL_DEFINITION('international standard',
'automotive_design',2009,#287);
#287=APPLICATION_CONTEXT(
'Core Data for Automotive Mechanical Design Process');
#288=PRODUCT_CONTEXT('part definition',#287,'mechanical');
#289=PRODUCT('chassis','(Unsaved)','Open CASCADE Model',(#288));
#290=PRODUCT('wheel-axle','wheel-axle',$,(#288));
#291=PRODUCT('wheel-axle_1','wheel-axle',$,(#288));
#292=PRODUCT('wheel','wheel',$,(#288));
#293=PRODUCT('axle','axle',$,(#288));
#294=PRESENTATION_STYLE_ASSIGNMENT((#298));
#295=PRESENTATION_STYLE_ASSIGNMENT((#299));
#296=PRESENTATION_STYLE_ASSIGNMENT((#300));
#297=PRESENTATION_STYLE_ASSIGNMENT((#301));
#298=SURFACE_STYLE_USAGE(.BOTH.,#302);
#299=SURFACE_STYLE_USAGE(.BOTH.,#303);
#300=SURFACE_STYLE_USAGE(.BOTH.,#304);
#301=SURFACE_STYLE_USAGE(.BOTH.,#305);
#302=SURFACE_SIDE_STYLE('',(#306));
#303=SURFACE_SIDE_STYLE('',(#307));
#304=SURFACE_SIDE_STYLE('',(#308));
#305=SURFACE_SIDE_STYLE('',(#309));
#306=SURFACE_STYLE_FILL_AREA(#310);
#307=SURFACE_STYLE_FILL_AREA(#311);
#308=SURFACE_STYLE_FILL_AREA(#312);
#309=SURFACE_STYLE_FILL_AREA(#313);
#310=FILL_AREA_STYLE('Steel - Satin',(#314));
#311=FILL_AREA_STYLE('Opaque(255,0,0)',(#315));
#312=FILL_AREA_STYLE('Opaque(0,0,255)',(#316));
#313=FILL_AREA_STYLE('Opaque(0,255,0)',(#317));
#314=FILL_AREA_STYLE_COLOUR('Steel - Satin',#318);
#315=FILL_AREA_STYLE_COLOUR('Opaque(255,0,0)',#319);
#316=FILL_AREA_STYLE_COLOUR('Opaque(0,0,255)',#320);
#317=FILL_AREA_STYLE_COLOUR('Opaque(0,255,0)',#321);
#318=COLOUR_RGB('Steel - Satin',0.627450980392157,0.627450980392157,0.627450980392157);
#319=COLOUR_RGB('Opaque(255,0,0)',1.,0.,0.);
#320=COLOUR_RGB('Opaque(0,0,255)',0.,0.,1.);
#321=COLOUR_RGB('Opaque(0,255,0)',0.,1.,0.);
ENDSEC;
END-ISO-10303-21;
