ISO-10303-21;
HEADER;
/* Generated by software containing ST-Developer
 * from STEP Tools, Inc. (www.steptools.com) 
 */

FILE_DESCRIPTION(
/* description */ (''),
/* implementation_level */ '2;1');

FILE_NAME(
/* name */ 
'C:\\Users\\pschwitalla\\OneDrive - igus GmbH\\Documents\\190520_Platt
form Tribocut\\01_Instant Quoting\\L\X\D6SUNGEN\\Oroox\\03_CNC calcula
tion\\40_Calculations\\Pockets\\02_Closed Pocket_planar floor, NO inte
rnal fillets, NO floor fillets_v01.stp',
/* time_stamp */ '2022-03-11T17:40:57+01:00',
/* author */ ('pschwitalla'),
/* organization */ ('igus GmbH'),
/* preprocessor_version */ 'ST-DEVELOPER v18.1',
/* originating_system */ 'Autodesk Inventor 2020',
/* authorisation */ '');

FILE_SCHEMA (('AUTOMOTIVE_DESIGN { 1 0 10303 214 3 1 1 }'));
ENDSEC;

DATA;
#10=MECHANICAL_DESIGN_GEOMETRIC_PRESENTATION_REPRESENTATION('',(#13),#325);
#11=SHAPE_REPRESENTATION_RELATIONSHIP('SRR','None',#332,#12);
#12=ADVANCED_BREP_SHAPE_REPRESENTATION('',(#14),#324);
#13=STYLED_ITEM('',(#341),#14);
#14=MANIFOLD_SOLID_BREP('Solid1',#197);
#15=FACE_BOUND('',#37,.T.);
#16=FACE_OUTER_BOUND('',#27,.T.);
#17=FACE_OUTER_BOUND('',#28,.T.);
#18=FACE_OUTER_BOUND('',#29,.T.);
#19=FACE_OUTER_BOUND('',#30,.T.);
#20=FACE_OUTER_BOUND('',#31,.T.);
#21=FACE_OUTER_BOUND('',#32,.T.);
#22=FACE_OUTER_BOUND('',#33,.T.);
#23=FACE_OUTER_BOUND('',#34,.T.);
#24=FACE_OUTER_BOUND('',#35,.T.);
#25=FACE_OUTER_BOUND('',#36,.T.);
#26=FACE_OUTER_BOUND('',#38,.T.);
#27=EDGE_LOOP('',(#127,#128,#129,#130));
#28=EDGE_LOOP('',(#131,#132,#133,#134));
#29=EDGE_LOOP('',(#135,#136,#137,#138));
#30=EDGE_LOOP('',(#139,#140,#141,#142));
#31=EDGE_LOOP('',(#143,#144,#145,#146));
#32=EDGE_LOOP('',(#147,#148,#149,#150));
#33=EDGE_LOOP('',(#151,#152,#153,#154));
#34=EDGE_LOOP('',(#155,#156,#157,#158));
#35=EDGE_LOOP('',(#159,#160,#161,#162));
#36=EDGE_LOOP('',(#163,#164,#165,#166));
#37=EDGE_LOOP('',(#167,#168,#169,#170));
#38=EDGE_LOOP('',(#171,#172,#173,#174));
#39=LINE('',#274,#63);
#40=LINE('',#276,#64);
#41=LINE('',#278,#65);
#42=LINE('',#279,#66);
#43=LINE('',#282,#67);
#44=LINE('',#284,#68);
#45=LINE('',#285,#69);
#46=LINE('',#288,#70);
#47=LINE('',#290,#71);
#48=LINE('',#291,#72);
#49=LINE('',#293,#73);
#50=LINE('',#294,#74);
#51=LINE('',#299,#75);
#52=LINE('',#301,#76);
#53=LINE('',#303,#77);
#54=LINE('',#304,#78);
#55=LINE('',#307,#79);
#56=LINE('',#309,#80);
#57=LINE('',#310,#81);
#58=LINE('',#313,#82);
#59=LINE('',#315,#83);
#60=LINE('',#316,#84);
#61=LINE('',#318,#85);
#62=LINE('',#319,#86);
#63=VECTOR('',#226,10.);
#64=VECTOR('',#227,10.);
#65=VECTOR('',#228,10.);
#66=VECTOR('',#229,10.);
#67=VECTOR('',#232,10.);
#68=VECTOR('',#233,10.);
#69=VECTOR('',#234,10.);
#70=VECTOR('',#237,10.);
#71=VECTOR('',#238,10.);
#72=VECTOR('',#239,10.);
#73=VECTOR('',#242,10.);
#74=VECTOR('',#243,10.);
#75=VECTOR('',#248,10.);
#76=VECTOR('',#249,10.);
#77=VECTOR('',#250,10.);
#78=VECTOR('',#251,10.);
#79=VECTOR('',#254,10.);
#80=VECTOR('',#255,10.);
#81=VECTOR('',#256,10.);
#82=VECTOR('',#259,10.);
#83=VECTOR('',#260,10.);
#84=VECTOR('',#261,10.);
#85=VECTOR('',#264,10.);
#86=VECTOR('',#265,10.);
#87=VERTEX_POINT('',#272);
#88=VERTEX_POINT('',#273);
#89=VERTEX_POINT('',#275);
#90=VERTEX_POINT('',#277);
#91=VERTEX_POINT('',#281);
#92=VERTEX_POINT('',#283);
#93=VERTEX_POINT('',#287);
#94=VERTEX_POINT('',#289);
#95=VERTEX_POINT('',#297);
#96=VERTEX_POINT('',#298);
#97=VERTEX_POINT('',#300);
#98=VERTEX_POINT('',#302);
#99=VERTEX_POINT('',#306);
#100=VERTEX_POINT('',#308);
#101=VERTEX_POINT('',#312);
#102=VERTEX_POINT('',#314);
#103=EDGE_CURVE('',#87,#88,#39,.T.);
#104=EDGE_CURVE('',#87,#89,#40,.T.);
#105=EDGE_CURVE('',#89,#90,#41,.T.);
#106=EDGE_CURVE('',#88,#90,#42,.T.);
#107=EDGE_CURVE('',#91,#87,#43,.T.);
#108=EDGE_CURVE('',#91,#92,#44,.T.);
#109=EDGE_CURVE('',#92,#89,#45,.T.);
#110=EDGE_CURVE('',#93,#91,#46,.T.);
#111=EDGE_CURVE('',#93,#94,#47,.T.);
#112=EDGE_CURVE('',#94,#92,#48,.T.);
#113=EDGE_CURVE('',#88,#93,#49,.T.);
#114=EDGE_CURVE('',#90,#94,#50,.T.);
#115=EDGE_CURVE('',#95,#96,#51,.T.);
#116=EDGE_CURVE('',#96,#97,#52,.T.);
#117=EDGE_CURVE('',#98,#97,#53,.T.);
#118=EDGE_CURVE('',#95,#98,#54,.T.);
#119=EDGE_CURVE('',#99,#95,#55,.T.);
#120=EDGE_CURVE('',#100,#98,#56,.T.);
#121=EDGE_CURVE('',#99,#100,#57,.T.);
#122=EDGE_CURVE('',#101,#99,#58,.T.);
#123=EDGE_CURVE('',#102,#100,#59,.T.);
#124=EDGE_CURVE('',#101,#102,#60,.T.);
#125=EDGE_CURVE('',#96,#101,#61,.T.);
#126=EDGE_CURVE('',#97,#102,#62,.T.);
#127=ORIENTED_EDGE('',*,*,#103,.F.);
#128=ORIENTED_EDGE('',*,*,#104,.T.);
#129=ORIENTED_EDGE('',*,*,#105,.T.);
#130=ORIENTED_EDGE('',*,*,#106,.F.);
#131=ORIENTED_EDGE('',*,*,#107,.F.);
#132=ORIENTED_EDGE('',*,*,#108,.T.);
#133=ORIENTED_EDGE('',*,*,#109,.T.);
#134=ORIENTED_EDGE('',*,*,#104,.F.);
#135=ORIENTED_EDGE('',*,*,#110,.F.);
#136=ORIENTED_EDGE('',*,*,#111,.T.);
#137=ORIENTED_EDGE('',*,*,#112,.T.);
#138=ORIENTED_EDGE('',*,*,#108,.F.);
#139=ORIENTED_EDGE('',*,*,#113,.F.);
#140=ORIENTED_EDGE('',*,*,#106,.T.);
#141=ORIENTED_EDGE('',*,*,#114,.T.);
#142=ORIENTED_EDGE('',*,*,#111,.F.);
#143=ORIENTED_EDGE('',*,*,#114,.F.);
#144=ORIENTED_EDGE('',*,*,#105,.F.);
#145=ORIENTED_EDGE('',*,*,#109,.F.);
#146=ORIENTED_EDGE('',*,*,#112,.F.);
#147=ORIENTED_EDGE('',*,*,#115,.T.);
#148=ORIENTED_EDGE('',*,*,#116,.T.);
#149=ORIENTED_EDGE('',*,*,#117,.F.);
#150=ORIENTED_EDGE('',*,*,#118,.F.);
#151=ORIENTED_EDGE('',*,*,#119,.T.);
#152=ORIENTED_EDGE('',*,*,#118,.T.);
#153=ORIENTED_EDGE('',*,*,#120,.F.);
#154=ORIENTED_EDGE('',*,*,#121,.F.);
#155=ORIENTED_EDGE('',*,*,#122,.T.);
#156=ORIENTED_EDGE('',*,*,#121,.T.);
#157=ORIENTED_EDGE('',*,*,#123,.F.);
#158=ORIENTED_EDGE('',*,*,#124,.F.);
#159=ORIENTED_EDGE('',*,*,#125,.T.);
#160=ORIENTED_EDGE('',*,*,#124,.T.);
#161=ORIENTED_EDGE('',*,*,#126,.F.);
#162=ORIENTED_EDGE('',*,*,#116,.F.);
#163=ORIENTED_EDGE('',*,*,#126,.T.);
#164=ORIENTED_EDGE('',*,*,#123,.T.);
#165=ORIENTED_EDGE('',*,*,#120,.T.);
#166=ORIENTED_EDGE('',*,*,#117,.T.);
#167=ORIENTED_EDGE('',*,*,#103,.T.);
#168=ORIENTED_EDGE('',*,*,#113,.T.);
#169=ORIENTED_EDGE('',*,*,#110,.T.);
#170=ORIENTED_EDGE('',*,*,#107,.T.);
#171=ORIENTED_EDGE('',*,*,#125,.F.);
#172=ORIENTED_EDGE('',*,*,#115,.F.);
#173=ORIENTED_EDGE('',*,*,#119,.F.);
#174=ORIENTED_EDGE('',*,*,#122,.F.);
#175=PLANE('',#211);
#176=PLANE('',#212);
#177=PLANE('',#213);
#178=PLANE('',#214);
#179=PLANE('',#215);
#180=PLANE('',#216);
#181=PLANE('',#217);
#182=PLANE('',#218);
#183=PLANE('',#219);
#184=PLANE('',#220);
#185=PLANE('',#221);
#186=ADVANCED_FACE('',(#16),#175,.F.);
#187=ADVANCED_FACE('',(#17),#176,.F.);
#188=ADVANCED_FACE('',(#18),#177,.F.);
#189=ADVANCED_FACE('',(#19),#178,.F.);
#190=ADVANCED_FACE('',(#20),#179,.F.);
#191=ADVANCED_FACE('',(#21),#180,.T.);
#192=ADVANCED_FACE('',(#22),#181,.T.);
#193=ADVANCED_FACE('',(#23),#182,.T.);
#194=ADVANCED_FACE('',(#24),#183,.T.);
#195=ADVANCED_FACE('',(#25,#15),#184,.T.);
#196=ADVANCED_FACE('',(#26),#185,.F.);
#197=CLOSED_SHELL('',(#186,#187,#188,#189,#190,#191,#192,#193,#194,#195,
#196));
#198=DERIVED_UNIT_ELEMENT(#200,1.);
#199=DERIVED_UNIT_ELEMENT(#327,3.);
#200=(
MASS_UNIT()
NAMED_UNIT(*)
SI_UNIT($,.GRAM.)
);
#201=DERIVED_UNIT((#198,#199));
#202=MEASURE_REPRESENTATION_ITEM('density measure',
POSITIVE_RATIO_MEASURE(1.),#201);
#203=PROPERTY_DEFINITION_REPRESENTATION(#208,#205);
#204=PROPERTY_DEFINITION_REPRESENTATION(#209,#206);
#205=REPRESENTATION('material name',(#207),#324);
#206=REPRESENTATION('density',(#202),#324);
#207=DESCRIPTIVE_REPRESENTATION_ITEM('Generic','Generic');
#208=PROPERTY_DEFINITION('material property','material name',#334);
#209=PROPERTY_DEFINITION('material property','density of part',#334);
#210=AXIS2_PLACEMENT_3D('placement',#270,#222,#223);
#211=AXIS2_PLACEMENT_3D('',#271,#224,#225);
#212=AXIS2_PLACEMENT_3D('',#280,#230,#231);
#213=AXIS2_PLACEMENT_3D('',#286,#235,#236);
#214=AXIS2_PLACEMENT_3D('',#292,#240,#241);
#215=AXIS2_PLACEMENT_3D('',#295,#244,#245);
#216=AXIS2_PLACEMENT_3D('',#296,#246,#247);
#217=AXIS2_PLACEMENT_3D('',#305,#252,#253);
#218=AXIS2_PLACEMENT_3D('',#311,#257,#258);
#219=AXIS2_PLACEMENT_3D('',#317,#262,#263);
#220=AXIS2_PLACEMENT_3D('',#320,#266,#267);
#221=AXIS2_PLACEMENT_3D('',#321,#268,#269);
#222=DIRECTION('axis',(0.,0.,1.));
#223=DIRECTION('refdir',(1.,0.,0.));
#224=DIRECTION('center_axis',(1.,-4.44089209850063E-15,-9.86076131526265E-31));
#225=DIRECTION('ref_axis',(-4.44089209850063E-15,-1.,-2.22044604925031E-16));
#226=DIRECTION('',(-4.44089209850063E-15,-1.,-2.22044604925031E-16));
#227=DIRECTION('',(0.,2.22044604925031E-16,-1.));
#228=DIRECTION('',(-4.44089209850063E-15,-1.,-2.22044604925031E-16));
#229=DIRECTION('',(0.,2.22044604925031E-16,-1.));
#230=DIRECTION('center_axis',(0.,1.,2.22044604925031E-16));
#231=DIRECTION('ref_axis',(1.,0.,0.));
#232=DIRECTION('',(1.,0.,0.));
#233=DIRECTION('',(0.,2.22044604925031E-16,-1.));
#234=DIRECTION('',(1.,0.,0.));
#235=DIRECTION('center_axis',(-1.,0.,0.));
#236=DIRECTION('ref_axis',(0.,1.,2.22044604925031E-16));
#237=DIRECTION('',(0.,1.,2.22044604925031E-16));
#238=DIRECTION('',(0.,2.22044604925031E-16,-1.));
#239=DIRECTION('',(0.,1.,2.22044604925031E-16));
#240=DIRECTION('center_axis',(0.,-1.,-2.22044604925031E-16));
#241=DIRECTION('ref_axis',(-1.,0.,0.));
#242=DIRECTION('',(-1.,0.,0.));
#243=DIRECTION('',(-1.,0.,0.));
#244=DIRECTION('center_axis',(0.,2.22044604925031E-16,-1.));
#245=DIRECTION('ref_axis',(0.,1.,2.22044604925031E-16));
#246=DIRECTION('center_axis',(2.368475785867E-16,-1.,-2.22044604925031E-16));
#247=DIRECTION('ref_axis',(1.,2.368475785867E-16,5.25907270147341E-32));
#248=DIRECTION('',(1.,2.368475785867E-16,5.25907270147341E-32));
#249=DIRECTION('',(0.,-2.22044604925031E-16,1.));
#250=DIRECTION('',(1.,2.368475785867E-16,5.25907270147341E-32));
#251=DIRECTION('',(0.,-2.22044604925031E-16,1.));
#252=DIRECTION('center_axis',(-1.,0.,0.));
#253=DIRECTION('ref_axis',(0.,-1.,-2.22044604925031E-16));
#254=DIRECTION('',(0.,-1.,-2.22044604925031E-16));
#255=DIRECTION('',(0.,-1.,-2.22044604925031E-16));
#256=DIRECTION('',(0.,-2.22044604925031E-16,1.));
#257=DIRECTION('center_axis',(-2.368475785867E-16,1.,2.22044604925031E-16));
#258=DIRECTION('ref_axis',(-1.,-2.368475785867E-16,-5.25907270147341E-32));
#259=DIRECTION('',(-1.,-2.368475785867E-16,-5.25907270147341E-32));
#260=DIRECTION('',(-1.,-2.368475785867E-16,-5.25907270147341E-32));
#261=DIRECTION('',(0.,-2.22044604925031E-16,1.));
#262=DIRECTION('center_axis',(1.,2.66453525910038E-16,5.91645678915759E-32));
#263=DIRECTION('ref_axis',(-2.66453525910038E-16,1.,2.22044604925031E-16));
#264=DIRECTION('',(-2.66453525910038E-16,1.,2.22044604925031E-16));
#265=DIRECTION('',(-2.66453525910038E-16,1.,2.22044604925031E-16));
#266=DIRECTION('center_axis',(0.,-2.22044604925031E-16,1.));
#267=DIRECTION('ref_axis',(0.,-1.,-2.22044604925031E-16));
#268=DIRECTION('center_axis',(0.,-2.22044604925031E-16,1.));
#269=DIRECTION('ref_axis',(0.,-1.,-2.22044604925031E-16));
#270=CARTESIAN_POINT('',(0.,0.,0.));
#271=CARTESIAN_POINT('Origin',(31.7692244190273,63.5736308926134,22.0014771048744));
#272=CARTESIAN_POINT('',(31.7692244190269,63.5736308926134,22.0014771048744));
#273=CARTESIAN_POINT('',(31.7692244190269,-16.4263691073866,22.0014771048744));
#274=CARTESIAN_POINT('',(31.7692244190271,31.7868154463067,22.0014771048744));
#275=CARTESIAN_POINT('',(31.7692244190269,63.5736308926134,7.00147710487444));
#276=CARTESIAN_POINT('',(31.7692244190269,63.5736308926134,22.0014771048744));
#277=CARTESIAN_POINT('',(31.7692244190269,-16.4263691073866,7.00147710487442));
#278=CARTESIAN_POINT('',(31.7692244190269,-16.4263691073866,7.00147710487442));
#279=CARTESIAN_POINT('',(31.7692244190269,-16.4263691073866,22.0014771048744));
#280=CARTESIAN_POINT('Origin',(-18.2307755809731,63.5736308926134,22.0014771048744));
#281=CARTESIAN_POINT('',(-18.2307755809731,63.5736308926134,22.0014771048744));
#282=CARTESIAN_POINT('',(-2.78230137589045,63.5736308926134,22.0014771048744));
#283=CARTESIAN_POINT('',(-18.2307755809731,63.5736308926134,7.00147710487444));
#284=CARTESIAN_POINT('',(-18.2307755809731,63.5736308926134,22.0014771048744));
#285=CARTESIAN_POINT('',(31.7692244190269,63.5736308926134,7.00147710487444));
#286=CARTESIAN_POINT('Origin',(-18.2307755809731,-16.4263691073866,22.0014771048744));
#287=CARTESIAN_POINT('',(-18.2307755809731,-16.4263691073866,22.0014771048744));
#288=CARTESIAN_POINT('',(-18.2307755809731,-8.21318455369329,22.0014771048744));
#289=CARTESIAN_POINT('',(-18.2307755809731,-16.4263691073866,7.00147710487442));
#290=CARTESIAN_POINT('',(-18.2307755809731,-16.4263691073866,22.0014771048744));
#291=CARTESIAN_POINT('',(-18.2307755809731,63.5736308926134,7.00147710487444));
#292=CARTESIAN_POINT('Origin',(31.7692244190269,-16.4263691073866,22.0014771048744));
#293=CARTESIAN_POINT('',(22.2176986241096,-16.4263691073866,22.0014771048744));
#294=CARTESIAN_POINT('',(-18.2307755809731,-16.4263691073866,7.00147710487442));
#295=CARTESIAN_POINT('Origin',(6.76922441902692,23.5736308926134,7.00147710487443));
#296=CARTESIAN_POINT('Origin',(-62.3338271708079,-100.,-12.9985228951256));
#297=CARTESIAN_POINT('',(-62.3338271708079,-100.,-12.9985228951256));
#298=CARTESIAN_POINT('',(87.6661728291922,-100.,-12.9985228951256));
#299=CARTESIAN_POINT('',(-62.3338271708079,-100.,-12.9985228951256));
#300=CARTESIAN_POINT('',(87.6661728291922,-100.,22.0014771048744));
#301=CARTESIAN_POINT('',(87.6661728291922,-100.,-12.9985228951256));
#302=CARTESIAN_POINT('',(-62.3338271708079,-100.,22.0014771048744));
#303=CARTESIAN_POINT('',(-62.3338271708079,-100.,22.0014771048744));
#304=CARTESIAN_POINT('',(-62.3338271708079,-100.,-12.9985228951256));
#305=CARTESIAN_POINT('Origin',(-62.3338271708079,100.,-12.9985228951256));
#306=CARTESIAN_POINT('',(-62.3338271708079,100.,-12.9985228951256));
#307=CARTESIAN_POINT('',(-62.3338271708079,100.,-12.9985228951256));
#308=CARTESIAN_POINT('',(-62.3338271708079,100.,22.0014771048745));
#309=CARTESIAN_POINT('',(-62.3338271708079,100.,22.0014771048745));
#310=CARTESIAN_POINT('',(-62.3338271708079,100.,-12.9985228951256));
#311=CARTESIAN_POINT('Origin',(87.6661728291922,100.,-12.9985228951256));
#312=CARTESIAN_POINT('',(87.6661728291922,100.,-12.9985228951256));
#313=CARTESIAN_POINT('',(87.6661728291922,100.,-12.9985228951256));
#314=CARTESIAN_POINT('',(87.6661728291922,100.,22.0014771048745));
#315=CARTESIAN_POINT('',(87.6661728291922,100.,22.0014771048745));
#316=CARTESIAN_POINT('',(87.6661728291922,100.,-12.9985228951256));
#317=CARTESIAN_POINT('Origin',(87.6661728291922,-100.,-12.9985228951256));
#318=CARTESIAN_POINT('',(87.6661728291922,-100.,-12.9985228951256));
#319=CARTESIAN_POINT('',(87.6661728291922,-100.,22.0014771048744));
#320=CARTESIAN_POINT('Origin',(12.6661728291922,-8.88178419700125E-15,22.0014771048744));
#321=CARTESIAN_POINT('Origin',(12.6661728291922,-2.22044604925031E-15,-12.9985228951256));
#322=UNCERTAINTY_MEASURE_WITH_UNIT(LENGTH_MEASURE(0.01),#326,
'DISTANCE_ACCURACY_VALUE',
'Maximum model space distance between geometric entities at asserted c
onnectivities');
#323=UNCERTAINTY_MEASURE_WITH_UNIT(LENGTH_MEASURE(0.01),#326,
'DISTANCE_ACCURACY_VALUE',
'Maximum model space distance between geometric entities at asserted c
onnectivities');
#324=(
GEOMETRIC_REPRESENTATION_CONTEXT(3)
GLOBAL_UNCERTAINTY_ASSIGNED_CONTEXT((#322))
GLOBAL_UNIT_ASSIGNED_CONTEXT((#326,#328,#329))
REPRESENTATION_CONTEXT('','3D')
);
#325=(
GEOMETRIC_REPRESENTATION_CONTEXT(3)
GLOBAL_UNCERTAINTY_ASSIGNED_CONTEXT((#323))
GLOBAL_UNIT_ASSIGNED_CONTEXT((#326,#328,#329))
REPRESENTATION_CONTEXT('','3D')
);
#326=(
LENGTH_UNIT()
NAMED_UNIT(*)
SI_UNIT(.MILLI.,.METRE.)
);
#327=(
LENGTH_UNIT()
NAMED_UNIT(*)
SI_UNIT(.CENTI.,.METRE.)
);
#328=(
NAMED_UNIT(*)
PLANE_ANGLE_UNIT()
SI_UNIT($,.RADIAN.)
);
#329=(
NAMED_UNIT(*)
SI_UNIT($,.STERADIAN.)
SOLID_ANGLE_UNIT()
);
#330=SHAPE_DEFINITION_REPRESENTATION(#331,#332);
#331=PRODUCT_DEFINITION_SHAPE('',$,#334);
#332=SHAPE_REPRESENTATION('',(#210),#324);
#333=PRODUCT_DEFINITION_CONTEXT('part definition',#338,'design');
#334=PRODUCT_DEFINITION('Pocket_v01',
'02_Closed Pocket_planar floor, NO internal fillets, NO floor fillets_
v01',#335,#333);
#335=PRODUCT_DEFINITION_FORMATION('',$,#340);
#336=PRODUCT_RELATED_PRODUCT_CATEGORY(
'02_Closed Pocket_planar floor, NO internal fillets, NO floor fillets_
v01',
'02_Closed Pocket_planar floor, NO internal fillets, NO floor fillets_
v01',(#340));
#337=APPLICATION_PROTOCOL_DEFINITION('international standard',
'automotive_design',2009,#338);
#338=APPLICATION_CONTEXT(
'Core Data for Automotive Mechanical Design Process');
#339=PRODUCT_CONTEXT('part definition',#338,'mechanical');
#340=PRODUCT('Pocket_v01',
'02_Closed Pocket_planar floor, NO internal fillets, NO floor fillets_
v01',$,(#339));
#341=PRESENTATION_STYLE_ASSIGNMENT((#342));
#342=SURFACE_STYLE_USAGE(.BOTH.,#345);
#343=SURFACE_STYLE_RENDERING_WITH_PROPERTIES($,#349,(#344));
#344=SURFACE_STYLE_TRANSPARENT(0.);
#345=SURFACE_SIDE_STYLE('',(#346,#343));
#346=SURFACE_STYLE_FILL_AREA(#347);
#347=FILL_AREA_STYLE('',(#348));
#348=FILL_AREA_STYLE_COLOUR('',#349);
#349=COLOUR_RGB('',0.749019607843137,0.749019607843137,0.749019607843137);
ENDSEC;
END-ISO-10303-21;
